55 135
22.5 135
22.5 75
70 75
70 22
30 22
30 40
45 40

45 22.5
85 22.5
85 105
125 105
125 65
110 65
110 20

110 65
125 65
125 105
165 105
165 147
125 147

165 147
165 100
210 100
210 80
180 40
180 25
195 25